CMSC320 Final Project
…
##  [1] "ID"               "name"             "category"        
##  [4] "main_category"    "currency"         "deadline"        
##  [7] "goal"             "launched"         "pledged"         
## [10] "state"            "backers"          "country"         
## [13] "usd pledged"      "usd_pledged_real" "usd_goal_real"

select() 

One of the most basic functions for manipulating our data is the select function, this will allow us to get a data frame with only the attributes we want.

For example, say we want a dataframe that only contains the name of the project, how much it raised, and the date it was launched on kickstarter then we would write

select(kickstart_frame, "name", "launched", "usd pledged")

## # A tibble: 378,661 x 3
##    name                                   launched            `usd pledged`
##    <chr>                                  <dttm>                      <dbl>
##  1 The Songs of Adelaide & Abullah        2015-08-11 12:12:28            0 
##  2 Greeting From Earth: ZGAC Arts Capsul 2017-09-02 04:43:57          100 
##  3 Where is Hank?                         2013-01-12 00:20:50          220 
##  4 ToshiCapital Rekordz Needs Help to Co 2012-03-17 03:24:11            1 
##  5 Community Film Project: The Art of Ne 2015-07-04 08:35:03         1283 
##  6 Monarch Espresso Bar                   2016-02-26 13:38:27        52375 
##  7 Support Solar Roasted Coffee & Green  2014-12-01 18:30:44         1205 
##  8 Chaser Strips. Our Strips make Shots  2016-02-01 20:05:12          453 
##  9 SPIN - Premium Retractable In-Ear Hea 2014-04-24 18:14:43         8233 
## 10 STUDIO IN THE SKY - A Documentary Fea 2014-07-11 21:55:48         6241.
## #  with 378,651 more rows

filter() 

Another very useful function in manipulating our data is the filter function, this function allows us to only show entities that satisfy certain requirements. Filter takes a data set and a series of boolean statements. For example, if we want to only show projects that are Animations and were successfully funded then we could write:

filter(kickstart_frame, category=="Animation", state=="successful")

## # A tibble: 682 x 15
##        ID name  category main_category currency deadline    goal
##     <dbl> <chr> <chr>    <chr>         <chr>    <date>     <dbl>
##  1 1.00e8 My M Animati Film & Video  USD      2017-05-03 50000
##  2 1.00e9 Lego Animati Film & Video  GBP      2013-06-04   125
##  3 1.00e9 Face Animati Film & Video  USD      2013-01-14  6500
##  4 1.01e9 FATH Animati Film & Video  USD      2011-07-28  7500
##  5 1.01e8 OPER Animati Film & Video  USD      2016-02-28 10960
##  6 1.01e9 Revo Animati Film & Video  CAD      2014-09-14 44000
##  7 1.02e9 Scri Animati Film & Video  USD      2016-02-10  1200
##  8 1.02e9 All  Animati Film & Video  GBP      2013-11-28 75000
##  9 1.03e9 Sanc Animati Film & Video  USD      2012-02-25   750
## 10 1.03e9 MONS Animati Film & Video  USD      2013-02-22 25000
## #  with 672 more rows, and 8 more variables: launched <dttm>,
## #   pledged <dbl>, state <chr>, backers <dbl>, country <chr>, `usd
## #   pledged` <dbl>, usd_pledged_real <dbl>, usd_goal_real <dbl>
…
We could also compose them with different variables, but then we would end up with a messy environment.

infix operator %>% 

So our solution to this problem is to use the dplyr package, this package is a grammar that allows us to compose multiple functions together in a readable manner using the infix operator %>%. It passes the result from a function to the next function, e.g.

# First we need to import the package
library(dplyr)

# Selecting names from our dataframe using the infix operator
kickstart_frame %>%
  select("name")

## # A tibble: 378,661 x 1
##    name                                                        
##    <chr>                                                       
##  1 The Songs of Adelaide & Abullah                             
##  2 Greeting From Earth: ZGAC Arts Capsule For ET               
##  3 Where is Hank?                                              
##  4 ToshiCapital Rekordz Needs Help to Complete Album           
##  5 Community Film Project: The Art of Neighborhood Filmmaking  
##  6 Monarch Espresso Bar                                        
##  7 Support Solar Roasted Coffee & Green Energy!  SolarCoffee.co
##  8 Chaser Strips. Our Strips make Shots their B*tch!           
##  9 SPIN - Premium Retractable In-Ear Headphones with Mic       
## 10 STUDIO IN THE SKY - A Documentary Feature Film (Canceled)   
## #  with 378,651 more rows
…
group_by() allows us to group our data into smaller groups so that when we perform operations on them each group has operations performed on them independently. So for example, if we theorize that we can get a better sense of the average of how far each project that fails is away from its goal if we group them by categories. i.e.we assume that video games probably have a higher average goal, and projects like art have a lower average goal.

# Remake our df to include category
df <- kickstart_frame %>%
  select("name", "category", "pledged", "goal") %>%
  mutate(dist_from_goal=goal-pledged)

 df <- df %>% 
  group_by(category) %>%
  summarize(min_goal=min(goal), max_goal=max(goal), avg_dist_from_goal=mean(dist_from_goal), count=n())
# n() gives us the number of observations in each group
 
df

## # A tibble: 159 x 5
##    category     min_goal  max_goal avg_dist_from_goal count
##    <chr>           <dbl>     <dbl>              <dbl> <int>
##  1 3D Printing        37   1200000            -23389.   683
##  2 Academic            1  25000000             53361.   916
##  3 Accessories         1   6800000             10907.  3165
##  4 Action              5 100000000            332741.   740
##  5 Animals             2    250000              8802.   255
##  6 Animation           1 100000000             85965.  2541
##  7 Anthologies         1   1000000              -371.   784
##  8 Apparel             1 100000000             31285.  7166
##  9 Apps                1  80000000             79490.  6345
## 10 Architecture       30 100000000            459163.   760
## #  with 149 more rows
…
